0000000000000000
0000000000000000
0000000000000000
0000001111100000
0000010011010000
0000100100001000
0001000001010100
0001000100001100
0001000010010100
0001010001010100
0001100000100100
0000100000001000
0000010000010000
0000001111100000
0000001000100000
0000001000100000
0000001000010000
0000001000010000
0000010000010000
0000010000001000
0000010000001011
0000100000000110
0000100000001100
1111111111111111
$
0000000000000000
0000000000000000
0000001111100000
0000010011010000
0000100100001000
0001000001010100
0001000100001100
0011000110010100
0100000111010100
0011000000100110
0000100000001100
0000010000010000
0000001111100000
0000001000100000
0000001000100000
0000001000100000
0000001000010000
0000001000010000
0000010000010000
0000010000010000
0000010000010000
0000100000010000
0000100000010000
1111111111111111
$
0000000000000000
0000000000000000
0000000000000000
0000001111100000
0000010011010000
0000100100001000
0001000001010100
0001000100001100
0001000010010100
0001010001010100
0001100000100100
0000100000001000
0000010000010000
0000001111100000
0000001000100000
0000001000100000
0000001000010000
0000001000010000
0000010000010000
0000100000001000
0001000000001000
0001100000001000
0000111000001000
1111111111111111
$
